^C:\USERS\INDUREVOL\SOURCE\REPOS\OBSHEPITV1\OBSHEPITV1\RECOVER.CPP
/c /IX64\DEBUG\UIC /IX64\DEBUG\MOC /IC:\QT\QT5.14.2\5.14.2\MSVC2017_64\INCLUDE /IC:\QT\QT5.14.2\5.14.2\MSVC2017_64\INCLUDE\QTWIDGETS /IC:\QT\QT5.14.2\5.14.2\MSVC2017_64\INCLUDE\QTGUI /IC:\QT\QT5.14.2\5.14.2\MSVC2017_64\INCLUDE\QTANGLE /IC:\QT\QT5.14.2\5.14.2\MSVC2017_64\INCLUDE\QTDBUS /IC:\QT\QT5.14.2\5.14.2\MSVC2017_64\INCLUDE\QTSQL /IC:\QT\QT5.14.2\5.14.2\MSVC2017_64\INCLUDE\QTCORE /I/INCLUDE /I"C:\QT\QT5.14.2\5.14.2\MSVC2017_64\MKSPECS\WIN32-MSVC" /IX64\DEBUG\MOC /IX64\DEBUG\UIC /Zi /nologo /W1 /WX- /diagnostics:column /Od /D UNICODE /D _UNICODE /D WIN32 /D _ENABLE_EXTENDED_ALIGNED_STORAGE /D WIN64 /D QT_WIDGETS_LIB /D QT_GUI_LIB /D QT_DBUS_LIB /D QT_SQL_LIB /D QT_CORE_LIB /Gm- /EHsc /MDd /GS /fp:precise /Zc:wchar_t /Zc:forScope /Zc:inline /Fo"X64\DEBUG\\" /Fd"X64\DEBUG\VC142.PDB" /Gd /TP /FC C:\USERS\INDUREVOL\SOURCE\REPOS\OBSHEPITV1\OBSHEPITV1\RECOVER.CPP
^C:\USERS\INDUREVOL\SOURCE\REPOS\OBSHEPITV1\OBSHEPITV1\REGISTRATION.CPP
/c /IX64\DEBUG\UIC /IX64\DEBUG\MOC /IC:\QT\QT5.14.2\5.14.2\MSVC2017_64\INCLUDE /IC:\QT\QT5.14.2\5.14.2\MSVC2017_64\INCLUDE\QTWIDGETS /IC:\QT\QT5.14.2\5.14.2\MSVC2017_64\INCLUDE\QTGUI /IC:\QT\QT5.14.2\5.14.2\MSVC2017_64\INCLUDE\QTANGLE /IC:\QT\QT5.14.2\5.14.2\MSVC2017_64\INCLUDE\QTDBUS /IC:\QT\QT5.14.2\5.14.2\MSVC2017_64\INCLUDE\QTSQL /IC:\QT\QT5.14.2\5.14.2\MSVC2017_64\INCLUDE\QTCORE /I/INCLUDE /I"C:\QT\QT5.14.2\5.14.2\MSVC2017_64\MKSPECS\WIN32-MSVC" /IX64\DEBUG\MOC /IX64\DEBUG\UIC /Zi /nologo /W1 /WX- /diagnostics:column /Od /D UNICODE /D _UNICODE /D WIN32 /D _ENABLE_EXTENDED_ALIGNED_STORAGE /D WIN64 /D QT_WIDGETS_LIB /D QT_GUI_LIB /D QT_DBUS_LIB /D QT_SQL_LIB /D QT_CORE_LIB /Gm- /EHsc /MDd /GS /fp:precise /Zc:wchar_t /Zc:forScope /Zc:inline /Fo"X64\DEBUG\\" /Fd"X64\DEBUG\VC142.PDB" /Gd /TP /FC C:\USERS\INDUREVOL\SOURCE\REPOS\OBSHEPITV1\OBSHEPITV1\REGISTRATION.CPP
^C:\USERS\INDUREVOL\SOURCE\REPOS\OBSHEPITV1\OBSHEPITV1\MAIN.CPP
/c /IX64\DEBUG\UIC /IX64\DEBUG\MOC /IC:\QT\QT5.14.2\5.14.2\MSVC2017_64\INCLUDE /IC:\QT\QT5.14.2\5.14.2\MSVC2017_64\INCLUDE\QTWIDGETS /IC:\QT\QT5.14.2\5.14.2\MSVC2017_64\INCLUDE\QTGUI /IC:\QT\QT5.14.2\5.14.2\MSVC2017_64\INCLUDE\QTANGLE /IC:\QT\QT5.14.2\5.14.2\MSVC2017_64\INCLUDE\QTDBUS /IC:\QT\QT5.14.2\5.14.2\MSVC2017_64\INCLUDE\QTSQL /IC:\QT\QT5.14.2\5.14.2\MSVC2017_64\INCLUDE\QTCORE /I/INCLUDE /I"C:\QT\QT5.14.2\5.14.2\MSVC2017_64\MKSPECS\WIN32-MSVC" /IX64\DEBUG\MOC /IX64\DEBUG\UIC /Zi /nologo /W1 /WX- /diagnostics:column /Od /D UNICODE /D _UNICODE /D WIN32 /D _ENABLE_EXTENDED_ALIGNED_STORAGE /D WIN64 /D QT_WIDGETS_LIB /D QT_GUI_LIB /D QT_DBUS_LIB /D QT_SQL_LIB /D QT_CORE_LIB /Gm- /EHsc /MDd /GS /fp:precise /Zc:wchar_t /Zc:forScope /Zc:inline /Fo"X64\DEBUG\\" /Fd"X64\DEBUG\VC142.PDB" /Gd /TP /FC C:\USERS\INDUREVOL\SOURCE\REPOS\OBSHEPITV1\OBSHEPITV1\MAIN.CPP
^C:\USERS\INDUREVOL\SOURCE\REPOS\OBSHEPITV1\OBSHEPITV1\X64\DEBUG\RCC\QRC_STARTING.CPP
/c /IX64\DEBUG\UIC /IX64\DEBUG\MOC /IC:\USERS\INDUREVOL\SOURCE\REPOS\OBSHEPITV1\OBSHEPITV1\ /IC:\QT\QT5.14.2\5.14.2\MSVC2017_64\INCLUDE /IC:\QT\QT5.14.2\5.14.2\MSVC2017_64\INCLUDE\QTWIDGETS /IC:\QT\QT5.14.2\5.14.2\MSVC2017_64\INCLUDE\QTGUI /IC:\QT\QT5.14.2\5.14.2\MSVC2017_64\INCLUDE\QTANGLE /IC:\QT\QT5.14.2\5.14.2\MSVC2017_64\INCLUDE\QTDBUS /IC:\QT\QT5.14.2\5.14.2\MSVC2017_64\INCLUDE\QTSQL /IC:\QT\QT5.14.2\5.14.2\MSVC2017_64\INCLUDE\QTCORE /I/INCLUDE /I"C:\QT\QT5.14.2\5.14.2\MSVC2017_64\MKSPECS\WIN32-MSVC" /IX64\DEBUG\MOC /IX64\DEBUG\UIC /Zi /nologo /W1 /WX- /diagnostics:column /Od /D UNICODE /D _UNICODE /D WIN32 /D _ENABLE_EXTENDED_ALIGNED_STORAGE /D WIN64 /D QT_WIDGETS_LIB /D QT_GUI_LIB /D QT_DBUS_LIB /D QT_SQL_LIB /D QT_CORE_LIB /Gm- /EHsc /MDd /GS /fp:precise /Zc:wchar_t /Zc:forScope /Zc:inline /Fo"X64\DEBUG\\" /Fd"X64\DEBUG\VC142.PDB" /Gd /TP /FC C:\USERS\INDUREVOL\SOURCE\REPOS\OBSHEPITV1\OBSHEPITV1\X64\DEBUG\RCC\QRC_STARTING.CPP
^C:\USERS\INDUREVOL\SOURCE\REPOS\OBSHEPITV1\OBSHEPITV1\X64\DEBUG\MOC\MOC_STARTING.CPP
/c /IX64\DEBUG\UIC /IX64\DEBUG\MOC /IC:\USERS\INDUREVOL\SOURCE\REPOS\OBSHEPITV1\OBSHEPITV1\ /IC:\QT\QT5.14.2\5.14.2\MSVC2017_64\INCLUDE /IC:\QT\QT5.14.2\5.14.2\MSVC2017_64\INCLUDE\QTWIDGETS /IC:\QT\QT5.14.2\5.14.2\MSVC2017_64\INCLUDE\QTGUI /IC:\QT\QT5.14.2\5.14.2\MSVC2017_64\INCLUDE\QTANGLE /IC:\QT\QT5.14.2\5.14.2\MSVC2017_64\INCLUDE\QTDBUS /IC:\QT\QT5.14.2\5.14.2\MSVC2017_64\INCLUDE\QTSQL /IC:\QT\QT5.14.2\5.14.2\MSVC2017_64\INCLUDE\QTCORE /I/INCLUDE /I"C:\QT\QT5.14.2\5.14.2\MSVC2017_64\MKSPECS\WIN32-MSVC" /IX64\DEBUG\MOC /IX64\DEBUG\UIC /Zi /nologo /W1 /WX- /diagnostics:column /Od /D UNICODE /D _UNICODE /D WIN32 /D _ENABLE_EXTENDED_ALIGNED_STORAGE /D WIN64 /D QT_WIDGETS_LIB /D QT_GUI_LIB /D QT_DBUS_LIB /D QT_SQL_LIB /D QT_CORE_LIB /Gm- /EHsc /MDd /GS /fp:precise /Zc:wchar_t /Zc:forScope /Zc:inline /Fo"X64\DEBUG\\" /Fd"X64\DEBUG\VC142.PDB" /Gd /TP /FC C:\USERS\INDUREVOL\SOURCE\REPOS\OBSHEPITV1\OBSHEPITV1\X64\DEBUG\MOC\MOC_STARTING.CPP
^C:\USERS\INDUREVOL\SOURCE\REPOS\OBSHEPITV1\OBSHEPITV1\X64\DEBUG\MOC\MOC_REGISTRATION.CPP
/c /IX64\DEBUG\UIC /IX64\DEBUG\MOC /IC:\USERS\INDUREVOL\SOURCE\REPOS\OBSHEPITV1\OBSHEPITV1\ /IC:\QT\QT5.14.2\5.14.2\MSVC2017_64\INCLUDE /IC:\QT\QT5.14.2\5.14.2\MSVC2017_64\INCLUDE\QTWIDGETS /IC:\QT\QT5.14.2\5.14.2\MSVC2017_64\INCLUDE\QTGUI /IC:\QT\QT5.14.2\5.14.2\MSVC2017_64\INCLUDE\QTANGLE /IC:\QT\QT5.14.2\5.14.2\MSVC2017_64\INCLUDE\QTDBUS /IC:\QT\QT5.14.2\5.14.2\MSVC2017_64\INCLUDE\QTSQL /IC:\QT\QT5.14.2\5.14.2\MSVC2017_64\INCLUDE\QTCORE /I/INCLUDE /I"C:\QT\QT5.14.2\5.14.2\MSVC2017_64\MKSPECS\WIN32-MSVC" /IX64\DEBUG\MOC /IX64\DEBUG\UIC /Zi /nologo /W1 /WX- /diagnostics:column /Od /D UNICODE /D _UNICODE /D WIN32 /D _ENABLE_EXTENDED_ALIGNED_STORAGE /D WIN64 /D QT_WIDGETS_LIB /D QT_GUI_LIB /D QT_DBUS_LIB /D QT_SQL_LIB /D QT_CORE_LIB /Gm- /EHsc /MDd /GS /fp:precise /Zc:wchar_t /Zc:forScope /Zc:inline /Fo"X64\DEBUG\\" /Fd"X64\DEBUG\VC142.PDB" /Gd /TP /FC C:\USERS\INDUREVOL\SOURCE\REPOS\OBSHEPITV1\OBSHEPITV1\X64\DEBUG\MOC\MOC_REGISTRATION.CPP
^C:\USERS\INDUREVOL\SOURCE\REPOS\OBSHEPITV1\OBSHEPITV1\X64\DEBUG\MOC\MOC_RECOVER.CPP
/c /IX64\DEBUG\UIC /IX64\DEBUG\MOC /IC:\USERS\INDUREVOL\SOURCE\REPOS\OBSHEPITV1\OBSHEPITV1\ /IC:\QT\QT5.14.2\5.14.2\MSVC2017_64\INCLUDE /IC:\QT\QT5.14.2\5.14.2\MSVC2017_64\INCLUDE\QTWIDGETS /IC:\QT\QT5.14.2\5.14.2\MSVC2017_64\INCLUDE\QTGUI /IC:\QT\QT5.14.2\5.14.2\MSVC2017_64\INCLUDE\QTANGLE /IC:\QT\QT5.14.2\5.14.2\MSVC2017_64\INCLUDE\QTDBUS /IC:\QT\QT5.14.2\5.14.2\MSVC2017_64\INCLUDE\QTSQL /IC:\QT\QT5.14.2\5.14.2\MSVC2017_64\INCLUDE\QTCORE /I/INCLUDE /I"C:\QT\QT5.14.2\5.14.2\MSVC2017_64\MKSPECS\WIN32-MSVC" /IX64\DEBUG\MOC /IX64\DEBUG\UIC /Zi /nologo /W1 /WX- /diagnostics:column /Od /D UNICODE /D _UNICODE /D WIN32 /D _ENABLE_EXTENDED_ALIGNED_STORAGE /D WIN64 /D QT_WIDGETS_LIB /D QT_GUI_LIB /D QT_DBUS_LIB /D QT_SQL_LIB /D QT_CORE_LIB /Gm- /EHsc /MDd /GS /fp:precise /Zc:wchar_t /Zc:forScope /Zc:inline /Fo"X64\DEBUG\\" /Fd"X64\DEBUG\VC142.PDB" /Gd /TP /FC C:\USERS\INDUREVOL\SOURCE\REPOS\OBSHEPITV1\OBSHEPITV1\X64\DEBUG\MOC\MOC_RECOVER.CPP
^C:\USERS\INDUREVOL\SOURCE\REPOS\OBSHEPITV1\OBSHEPITV1\STARTING.CPP
/c /IX64\DEBUG\UIC /IX64\DEBUG\MOC /IC:\QT\QT5.14.2\5.14.2\MSVC2017_64\INCLUDE /IC:\QT\QT5.14.2\5.14.2\MSVC2017_64\INCLUDE\QTWIDGETS /IC:\QT\QT5.14.2\5.14.2\MSVC2017_64\INCLUDE\QTGUI /IC:\QT\QT5.14.2\5.14.2\MSVC2017_64\INCLUDE\QTANGLE /IC:\QT\QT5.14.2\5.14.2\MSVC2017_64\INCLUDE\QTDBUS /IC:\QT\QT5.14.2\5.14.2\MSVC2017_64\INCLUDE\QTSQL /IC:\QT\QT5.14.2\5.14.2\MSVC2017_64\INCLUDE\QTCORE /I/INCLUDE /I"C:\QT\QT5.14.2\5.14.2\MSVC2017_64\MKSPECS\WIN32-MSVC" /IX64\DEBUG\MOC /IX64\DEBUG\UIC /Zi /nologo /W1 /WX- /diagnostics:column /Od /D UNICODE /D _UNICODE /D WIN32 /D _ENABLE_EXTENDED_ALIGNED_STORAGE /D WIN64 /D QT_WIDGETS_LIB /D QT_GUI_LIB /D QT_DBUS_LIB /D QT_SQL_LIB /D QT_CORE_LIB /Gm- /EHsc /MDd /GS /fp:precise /Zc:wchar_t /Zc:forScope /Zc:inline /Fo"X64\DEBUG\\" /Fd"X64\DEBUG\VC142.PDB" /Gd /TP /FC C:\USERS\INDUREVOL\SOURCE\REPOS\OBSHEPITV1\OBSHEPITV1\STARTING.CPP
